
                                                          
                                                          
   SSSSSSSSSSSSSSS      OOOOOOOOO     PPPPPPPPPPPPPPPPP   
 SS:::::::::::::::S   OO:::::::::OO   P::::::::::::::::P  
S:::::SSSSSS::::::S OO:::::::::::::OO P::::::PPPPPP:::::P 
S:::::S     SSSSSSSO:::::::OOO:::::::OPP:::::P     P:::::P
S:::::S            O::::::O   O::::::O  P::::P     P:::::P
S:::::S            O:::::O     O:::::O  P::::P     P:::::P
 S::::SSSS         O:::::O     O:::::O  P::::PPPPPP:::::P 
  SS::::::SSSSS    O:::::O     O:::::O  P:::::::::::::PP  
    SSS::::::::SS  O:::::O     O:::::O  P::::PPPPPPPPP    
       SSSSSS::::S O:::::O     O:::::O  P::::P            
            S:::::SO:::::O     O:::::O  P::::P            
            S:::::SO::::::O   O::::::O  P::::P            
SSSSSSS     S:::::SO:::::::OOO:::::::OPP::::::PP          
S::::::SSSSSS:::::S OO:::::::::::::OO P::::::::P          
S:::::::::::::::SS    OO:::::::::OO   P::::::::P          
 SSSSSSSSSSSSSSS        OOOOOOOOO     PPPPPPPPPP          
                                                          
                                                          
                                                          
                                                          
                                                          
                                                          
                                                          
 